<?xml version="1.0" encoding="utf-8"?>
<!-- Generator: Adobe Illustrator 18.1.1, SVG Export Plug-In . SVG Version: 6.00 Build 0)  -->
<svg version="1.1" id="Layer_1" xmlns="http://www.w3.org/2000/svg" xmlns:xlink="http://www.w3.org/1999/xlink" x="0px" y="0px"
	 viewBox="0 0 107 80" enable-background="new 0 0 107 80" xml:space="preserve">
<g>
	<g>
		<path fill="#B3B3B3" d="M65.8,55.2c-5,0-19.5,0-24.5,0c-0.3-0.1-0.7-0.1-1-0.3c-1.9-0.7-3.2-2.4-3.2-4.5c0-3.1,0-6.3,0-9.4
			c0-3.8,0-7.6,0-11.4c0-2.1,1.2-3.9,3.2-4.5c0.3-0.1,0.7-0.2,1-0.3c3.3,0,16.2,0,19.6,0c0.1,0,0.3,0.1,0.4,0.1
			c0.8,0.2,1.4,0.7,2,1.3c1.6,1.5,3.2,3.1,4.7,4.7c0.4,0.4,0.8,0.8,1.1,1.2c0.5,0.6,0.9,1.3,0.9,2.1c0,5.4,0,10.9,0,16.3
			c0,2-1.3,3.7-3.2,4.4C66.5,55,66.1,55.1,65.8,55.2z M39.4,40c0,3.4,0,6.8,0,10.2c0,0.3,0,0.6,0.1,0.8c0.3,1.1,1.2,1.8,2.4,1.8
			c4.6,0,18.7,0,23.3,0c0.6,0,1.1-0.1,1.5-0.5c0.7-0.5,0.9-1.3,0.9-2.1c0-4.9,0-9.8,0-14.7c0-0.1,0-0.3,0-0.4c0-0.5-0.3-0.8-0.7-0.9
			c-0.3-0.1-0.6-0.1-0.8-0.1c-1.4,0-2.7,0-4.1,0c-0.4,0-0.7-0.1-1-0.4c-0.2-0.3-0.3-0.6-0.3-1c0-1.3,0-2.6,0-4c0-0.3-0.1-0.7-0.2-1
			c-0.1-0.4-0.5-0.6-0.9-0.6c-2.7,0-15,0-17.7,0c-0.8,0-1.5,0.3-2,0.9c-0.4,0.5-0.5,1.1-0.5,1.7C39.4,33.2,39.4,36.6,39.4,40z"/>
		<path fill="#B3B3B3" d="M53.7,48.2c-2.7,0-5.3,0-8,0c-0.3,0-0.7-0.1-1-0.2c-0.4-0.2-0.4-0.5-0.2-0.9c0.8-1.4,1.5-2.9,2.3-4.3
			c0.4-0.7,0.9-1.3,1.5-1.9c0.5-0.5,1-0.5,1.6-0.1c0.3,0.2,0.6,0.5,0.8,0.8c0.4,0.5,0.8,0.9,1.2,1.4c1,1,2.1,0.9,2.8-0.3
			c0.6-0.9,1-1.9,1.4-2.9c0.4-1,0.8-2,1.3-2.9c0.1-0.2,0.3-0.5,0.5-0.6c0.3-0.3,0.7-0.3,1,0c0.4,0.5,0.8,1,1.1,1.6
			c1.2,2.4,1.9,5,2.6,7.5c0.1,0.5,0.2,0.9,0.4,1.4c0.2,0.9-0.2,1.5-1.1,1.5C59.1,48.2,56.4,48.2,53.7,48.2z"/>
		<path fill="#B3B3B3" d="M52.1,34.2c0,1.7-1.5,3.1-3.1,3.1c-1.7,0-3.1-1.4-3.1-3.1c0-1.7,1.5-3.1,3.1-3.1
			C50.8,31.1,52.1,32.4,52.1,34.2z"/>
	</g>
</g>
</svg>
