{
  "Compliance - Certificate": [
    {
      "dbRequired": false,
      "fieldPath": "Expired_Date__c",
      "label": "Expired Date",
      "required": true,
      "type": "date",
      "typeApex": "DATE"
    },
    {
      "dbRequired": false,
      "fieldPath": "Status__c",
      "label": "Status",
      "required": false,
      "type": "picklist",
      "typeApex": "PICKLIST"
    }
  ],
  "Reference Check": [
    {
      "dbRequired": false,
      "fieldPath": "PeopleCloud1__Type__c",
      "label": "Type",
      "required": false,
      "type": "string",
      "typeApex": "STRING"
    },
    {
      "dbRequired": false,
      "fieldPath": "PeopleCloud1__Account__c",
      "label": "Account",
      "required": false,
      "type": "reference",
      "typeApex": "REFERENCE"
    }
  ],
  "OHS": [
    {
      "dbRequired": false,
      "fieldPath": "Expired_Date__c",
      "label": "Expired Date",
      "required": true,
      "type": "date",
      "typeApex": "DATE"
    },
    {
      "dbRequired": false,
      "fieldPath": "Description__c",
      "label": "Description",
      "required": false,
      "type": "textarea",
      "typeApex": "TEXTAREA"
    }
  ],
  "TOB": [],
  "Other Document": [
    {
      "dbRequired": false,
      "fieldPath": "Description__c",
      "label": "Description",
      "required": true,
      "type": "textarea",
      "typeApex": "TEXTAREA"
    }
  ],
  "CoverLetter": [],
  "Resume": []
}